{
    "id": "",
    "modelName": "GMEvent",
    "mvc": "1.0",
    "IsDnD": false,
    "collisionObjectId": "00000000-0000-0000-0000-000000000000",
    "enumb": 0,
    "eventtype": 0,
    "m_owner": ""
}